{
  "sections": [{
		"id": "menu",
		"slug": "multipress-nav-1",
		"title": "menu",
		"contents": {
			"site_logo": "https:\/\/maulanaicl.files.wordpress.com\/2016\/09\/logo.png",
			"site_description": "",
			"site_menu": "7"
		},
		"settings": {
			"show_search": false,
			"show_cart": false,
			"sticky_header": false,
			"transparent_menu": true,
			"container_size": "container"
		},
		"styles": {
			"background_color": "#323232",
			"content_color": "#ffffff"
		}
	}, {
		"id": "contact",
		"slug": "multipress-contact-2",
		"title": "contact",
		"contents": {
			"section_title": "Contact Us",
			"section_subtitle": "",
			"latitude": "-6.903932",
			"longitude": "107.611717",
			"zoom": "15",
			"title": "MULTIPRESS Travel",
			"content": "MULTIPRESS TRAVEL AGENT",
			"style": "[{\"featureType\":\"water\",\"elementType\":\"geometry\",\"stylers\":[{\"color\":\"#e9e9e9\"},{\"lightness\":17}]},{\"featureType\":\"landscape\",\"elementType\":\"geometry\",\"stylers\":[{\"color\":\"#f5f5f5\"},{\"lightness\":20}]},{\"featureType\":\"road.highway\",\"elementType\":\"geometry.fill\",\"stylers\":[{\"color\":\"#ffffff\"},{\"lightness\":17}]},{\"featureType\":\"road.highway\",\"elementType\":\"geometry.stroke\",\"stylers\":[{\"color\":\"#ffffff\"},{\"lightness\":29},{\"weight\":0.2}]},{\"featureType\":\"road.arterial\",\"elementType\":\"geometry\",\"stylers\":[{\"color\":\"#ffffff\"},{\"lightness\":18}]},{\"featureType\":\"road.local\",\"elementType\":\"geometry\",\"stylers\":[{\"color\":\"#ffffff\"},{\"lightness\":16}]},{\"featureType\":\"poi\",\"elementType\":\"geometry\",\"stylers\":[{\"color\":\"#f5f5f5\"},{\"lightness\":21}]},{\"featureType\":\"poi.park\",\"elementType\":\"geometry\",\"stylers\":[{\"color\":\"#dedede\"},{\"lightness\":21}]},{\"elementType\":\"labels.text.stroke\",\"stylers\":[{\"visibility\":\"on\"},{\"color\":\"#ffffff\"},{\"lightness\":16}]},{\"elementType\":\"labels.text.fill\",\"stylers\":[{\"saturation\":36},{\"color\":\"#333333\"},{\"lightness\":40}]},{\"elementType\":\"labels.icon\",\"stylers\":[{\"visibility\":\"off\"}]},{\"featureType\":\"transit\",\"elementType\":\"geometry\",\"stylers\":[{\"color\":\"#f2f2f2\"},{\"lightness\":19}]},{\"featureType\":\"administrative\",\"elementType\":\"geometry.fill\",\"stylers\":[{\"color\":\"#fefefe\"},{\"lightness\":20}]},{\"featureType\":\"administrative\",\"elementType\":\"geometry.stroke\",\"stylers\":[{\"color\":\"#fefefe\"},{\"lightness\":17},{\"weight\":1.2}]}]",
			"contact_form": "",
			"phone_number": "0222503530",
			"email_address": "support@multipress.com",
			"contact_text": "Lorem ipsum dolor sit amet, consectetur adipisicing elit. Sequi distinctio harum nemo nobis est debitis veritatis voluptatibus quaerat dignissimos eius eligendi adipisci nesciunt cum, deserunt voluptates soluta officia pariatur, ab."
		},
		"settings": {
			"container_size": "container",
			"parallax_background": false,
			"fullscreen_height": false,
			"fixed_bg": false
		},
		"styles": {
			"bg_color": "#ffffff",
			"bg_overlay": "rgba(0,0,0,0.55)",
			"bg_image": "https:\/\/maulanaicl.files.wordpress.com\/2016\/09\/car_009-copy.jpg",
			"bg_size": "cover",
			"bg_position": "center",
			"bg_repeat": "repeat",
			"padding_top": "200",
			"padding_bottom": "200",
			"margin_top": "",
			"margin_bottom": "",
			"section_title_color": "#ffffff",
			"section_title_font_size": "",
			"section_subtitle_color": "#bababa",
			"section_subtitle_font_size": "",
			"item_content_color": "#ffffff",
			"item_content_font_size": "",
			"item_form_background_color": "#ffffff"
		}
	}, {
		"id": "footer",
		"slug": "footer-1",
		"title": "footer",
		"contents": {
			"social": ["http:\/\/facebook.com\/ThemeXpert", "http:\/\/twitter.com\/themexpert", "http:\/\/linkedin.com\/themexpert", "http:\/\/behance.net\/ThemeXpert", "http:\/\/dribbble.com\/themexpert"],
			"menu": "13",
			"copyright": "Copyright © 2015 OnePager, All Rights Reserved"
		},
		"styles": {
			"bg_color": "#323232",
			"text_color": "#f2f2f2"
		}
	}],
	  "name": "Contact 4"
}