{
  "sections": [{
		"id": "s_751912222",
		"slug": "multipress-nav-2",
		"title": "untitled section",
		"contents": {
			"site_logo": "https:\/\/fajarekonugroho.files.wordpress.com\/2016\/09\/agency-logo.jpg",
			"site_description": "",
			"site_menu": "7",
			"secondary_menu": "7",
			"phone_number": "0222503530",
			"email_address": "you@yours.com",
			"social_icons": [{
				"url": "#",
				"icon": "ion-social-twitter "
			}, {
				"url": "#",
				"icon": "fa fa-facebook-f "
			}, {
				"url": "#",
				"icon": "ion-social-instagram "
			}]
		},
		"settings": {
			"show_search": true,
			"show_cart": true,
			"sticky_header": true,
			"container_size": "container"
		},
		"styles": {
			"top_background_color": "#ffd000",
			"top_content_color": "#373737",
			"background_color": "#ffffff",
			"content_color": "#333333",
			"separator_color": "rgba(0,0,0,1)"
		}
	}, {
		"id": "hero",
		"slug": "multipress-content-17",
		"title": "hero",
		"contents": {
			"title": "KNOW OUR TEAM",
			"content": "Vivamus pulvinar vitae velit sed molestie. Vivamus quis magna enim.",
			"button_text": "",
			"button_link": "http:\/\/example.com"
		},
		"settings": {
			"container_size": "container",
			"parallax_background": false,
			"fullscreen_height": false,
			"fixed_bg": false
		},
		"styles": {
			"bg_color": "",
			"bg_overlay": "rgba(0,0,0,0.16)",
			"bg_image": "https:\/\/fajarekonugroho.files.wordpress.com\/2016\/09\/profesi_014.jpg",
			"bg_size": "cover",
			"bg_position": "center",
			"bg_repeat": "repeat",
			"bg_video": "",
			"padding_top": "200",
			"padding_bottom": "200",
			"margin_top": "0",
			"margin_bottom": "50",
			"title_color": "",
			"title_font_size": "90",
			"subtitle_color": "",
			"subtitle_font_size": ""
		}
	}, {
		"id": "s_72865654",
		"slug": "multipress-team-2",
		"title": "untitled section",
		"contents": {
			"orderby": "date",
			"order": "DESC"
		},
		"settings": {
			"container_size": "container",
			"parallax_background": false,
			"fullscreen_height": false,
			"fixed_bg": false
		},
		"styles": {
			"bg_color": "#ffffff",
			"bg_overlay": "",
			"bg_image": "",
			"bg_size": "initial",
			"bg_position": "center",
			"bg_repeat": "repeat",
			"padding_top": "150",
			"padding_bottom": "50",
			"margin_top": "0",
			"margin_bottom": "0",
			"item_title_color": "",
			"item_title_font_size": "",
			"item_position_color": "",
			"item_position_font_size": "",
			"item_content_color": "",
			"item_content_font_size": "",
			"item_social_icon_color": "",
			"item_social_icon_font_size": ""
		}
	}, {
		"id": "s_49220182",
		"slug": "multipress-team-3",
		"title": "untitled section",
		"contents": {
			"section_title": "Our Team",
			"section_subtitle": "Lorem ipsum dolor sit amet, consectetur adipisicing elit. Nobis quidem ea nostrum, provident consectetur quo nemo distinctio atque, excepturi culpa!",
			"orderby": "date",
			"order": "DESC"
		},
		"settings": {
			"section_alignment": "center",
			"container_size": "container",
			"parallax_background": false,
			"fullscreen_height": false,
			"fixed_bg": false
		},
		"styles": {
			"bg_color": "#ffffff",
			"bg_overlay": "",
			"bg_image": "",
			"bg_size": "initial",
			"bg_position": "center",
			"bg_repeat": "repeat",
			"padding_top": "150",
			"padding_bottom": "150",
			"margin_top": "0",
			"margin_bottom": "0",
			"section_title_color": "",
			"section_title_font_size": "",
			"section_subtitle_color": "",
			"section_subtitle_font_size": "",
			"item_title_color": "",
			"item_title_font_size": "",
			"item_position_color": "",
			"item_position_font_size": "",
			"item_content_color": "",
			"item_content_font_size": "",
			"item_social_icon_color": "",
			"item_social_icon_font_size": ""
		}
	}, {
		"id": "s_326265119",
		"slug": "multipress-footer-4",
		"title": "untitled section",
		"contents": {
			"sidebar_one": "footer-one",
			"sidebar_two": "footer-two",
			"sidebar_three": "footer-three",
			"sidebar_four": "footer-four",
			"sidebar_five": "footer-five",
			"footer_text": "Copyright \u00a9 2016 <a class=\"site-link\" href=\"http:\/\/kreative.dev\/multipress\" title=\"Multipress\" rel=\"home\"><span>Multipress<\/span><\/a>."
		},
		"settings": {
			"container_size": "container"
		},
		"styles": {
			"bg_color": "#ffd000",
			"bg_image": "",
			"bg_size": "initial",
			"bg_position": "center",
			"bg_repeat": "repeat",
			"padding_top": "50",
			"padding_bottom": "50",
			"margin_top": "0",
			"margin_bottom": "0",
			"footer_color": "#666666",
			"footer_link_color": "#666666",
			"footer_link_color_hover": "#333333",
			"footer_widget_color": "#333333",
			"separator_color": ""
		}
	}],
	  "name": "Team 1"
}